Nickname : root Password : $2y$10$ZLskMYz5/hTDxpOTBpFlj.fCHxwj6bmSXKwLEHnelRH75VCSXTv/u 127.0.0.1 2018-05-15T14:12:52+02:00 Connexion échoué. 
Nickname : root Password : $2y$10$RC//SaARASbDT8d6YBrv.eeXjeHxXmOJqXVd7CURLhLF6FhKCR44e 127.0.0.1 2018-05-16T10:35:28+02:00 Connexion échoué. 
Nickname : root Password : //Millesfeuilles2 127.0.0.1 2018-05-16T10:36:22+02:00 Connexion échoué. 
Nickname : root Password : //Millesfeuilles2 127.0.0.1 2018-05-16T10:36:23+02:00 Connexion échoué. 
Nickname : root Password : Fnffntf8 ::1 2018-06-19T11:29:26+02:00 Connexion échoué. 
Nickname : root Password : Fnffntf8 ::1 2018-06-19T13:25:58+02:00 Connexion échoué. 
Nickname : roo Password : Fnffntf8 ::1 2018-06-19T13:29:56+02:00 Connexion échoué. 
Nickname : roo Password : Fnffntf8 ::1 2018-06-19T13:32:30+02:00 Connexion échoué. 
Nickname : roo Password : Fnffntf8 ::1 2018-06-19T13:33:15+02:00 Connexion échoué. 
Nickname : root Password : Fnffntf8 ::1 2018-06-19T13:33:25+02:00 Connexion échoué. 
Nickname : root Password : Fnffntf8 ::1 2018-06-19T13:33:26+02:00 Connexion échoué. 
Nickname : Asphyx Password : HelloWorld ::1 2018-06-19T13:34:10+02:00 Connexion réussi. 
Nickname : root Password : Fnffntf8 ::1 2018-06-19T13:34:27+02:00 Connexion échoué. 
Nickname : root Password : Fnffntf8 ::1 2018-06-19T13:36:49+02:00 Connexion échoué. 
Nickname : root Password : Fnffntf8 ::1 2018-06-19T13:36:51+02:00 Connexion échoué. 
Nickname : root Password : Fnffntf8 ::1 2018-06-19T13:37:04+02:00 Connexion échoué. 
Nickname : root Password : Fnffntf8 ::1 2018-06-19T13:37:06+02:00 Connexion échoué. 
Nickname : root Password : Fnffntf8 ::1 2018-06-19T13:38:20+02:00 Connexion échoué. 
Nickname : root Password : Fnffntf8 ::1 2018-06-19T13:38:22+02:00 Connexion échoué. 
Nickname : root Password : Fnffntf8 ::1 2018-06-19T13:38:50+02:00 Connexion échoué. 
Nickname : root Password : Fnffntf8 ::1 2018-06-19T13:38:51+02:00 Connexion échoué. 
Nickname : root Password : Fnffntf8 ::1 2018-06-19T13:38:52+02:00 Connexion échoué. 
Nickname : roots Password : Fnffntf8s ::1 2018-06-19T13:40:17+02:00 Connexion échoué. 
Nickname : root Password : Fnffntf8 ::1 2018-06-19T13:40:18+02:00 Connexion échoué. 
Nickname : root Password : Fnffntf8 ::1 2018-06-19T13:40:18+02:00 Connexion échoué. 
Nickname : root Password : Fnffntf8 ::1 2018-06-19T13:40:21+02:00 Connexion échoué. 
Nickname : root Password : Fnffntf8 ::1 2018-06-19T13:43:43+02:00 Connexion échoué. 
Nickname : root Password : Fnffntf8 ::1 2018-06-19T13:43:46+02:00 Connexion échoué. 
Nickname : root Password : Fnffntf8 ::1 2018-06-19T13:57:49+02:00 Connexion échoué. 
Nickname : root Password : Fnffntf8 ::1 2018-06-19T13:57:53+02:00 Connexion échoué. 
Nickname : root Password : Fnffntf8 ::1 2018-06-19T13:58:14+02:00 Connexion échoué. 
Nickname : root Password : Fnffntf8 ::1 2018-06-19T13:58:18+02:00 Connexion échoué. 
Nickname : root Password : Fnffntf8 ::1 2018-06-19T13:58:41+02:00 Connexion échoué. 
Nickname : root Password : Fnffntf8 ::1 2018-06-19T13:58:44+02:00 Connexion échoué. 
Nickname : root Password : Fnffntf8 ::1 2018-06-19T13:58:55+02:00 Connexion échoué. 
Nickname : root Password : Fnffntf8 ::1 2018-06-19T13:58:58+02:00 Connexion échoué. 
Nickname : root Password : Fnffntf8 ::1 2018-06-19T13:58:59+02:00 Connexion échoué. 
Nickname : root Password : Fnffntf8 ::1 2018-06-19T13:59:14+02:00 Connexion échoué. 
Nickname : root Password : Fnffntf8 ::1 2018-06-19T13:59:15+02:00 Connexion échoué. 
Nickname : root Password : Fnffntf8 ::1 2018-06-19T13:59:15+02:00 Connexion échoué. 
Nickname : root Password : Fnffntf8 ::1 2018-06-19T13:59:16+02:00 Connexion échoué. 
Nickname : root Password : Fnffntf8 ::1 2018-06-19T13:59:16+02:00 Connexion échoué. 
Nickname : root Password : Fnffntf8 ::1 2018-06-19T13:59:17+02:00 Connexion échoué. 
Nickname : root Password : Fnffntf8 ::1 2018-06-19T13:59:17+02:00 Connexion échoué. 
Nickname : root Password : Fnffntf8 ::1 2018-06-19T13:59:19+02:00 Connexion échoué. 
Nickname : root Password : Fnffntf8 ::1 2018-06-19T14:01:38+02:00 Connexion échoué. 
Nickname : root Password : Fnffntf8 ::1 2018-06-19T14:02:16+02:00 Connexion échoué. 
Nickname : root Password : Fnffntf8 ::1 2018-06-19T14:03:42+02:00 Connexion échoué. 
Nickname : root Password : Fnffntf8 ::1 2018-06-19T14:03:44+02:00 Connexion échoué. 
Nickname : root-('y'( Password : Fnffntf8 ::1 2018-06-19T14:03:47+02:00 Connexion échoué. 
Nickname : root-('y'( Password : Fnffntf8 ::1 2018-06-19T14:06:33+02:00 Connexion échoué. 
Nickname : root-('y'( Password : Fnffntf8 ::1 2018-06-19T14:06:34+02:00 Connexion échoué. 
Nickname : root-('y'( Password : Fnffntf8 ::1 2018-06-19T14:06:57+02:00 Connexion échoué. 
Nickname : root-('y'( Password : Fnffntf8 ::1 2018-06-19T14:07:31+02:00 Connexion échoué. 
Nickname : root-('y'( Password : Fnffntf8 ::1 2018-06-19T14:08:39+02:00 Connexion échoué. 
Nickname : root-('y'( Password : Fnffntf8 ::1 2018-06-19T14:09:09+02:00 Connexion échoué. 
Nickname : root-('y'( Password : Fnffntf8 ::1 2018-06-19T14:09:24+02:00 Connexion échoué. 
Nickname : root-('y'( Password : Fnffntf8 ::1 2018-06-19T14:10:09+02:00 Connexion échoué. 
Nickname : root-('y'( Password : Fnffntf8 ::1 2018-06-19T14:10:21+02:00 Connexion échoué. 
Nickname : root Password : Fnffntf8 ::1 2018-06-19T14:10:23+02:00 Connexion échoué. 
Nickname : root Password : Fnffntf8 ::1 2018-06-19T14:11:01+02:00 Connexion échoué. 
Nickname : root Password : Fnffntf8 ::1 2018-06-19T14:11:48+02:00 Connexion échoué. 
Nickname : root Password : Fnffntf8 ::1 2018-06-19T14:12:05+02:00 Connexion échoué. 
Nickname : root Password : Fnffntf8 ::1 2018-06-19T14:13:28+02:00 Connexion échoué. 
Nickname : root Password : Fnffntf8 ::1 2018-06-19T14:13:30+02:00 Connexion échoué. 
Nickname : root Password : Fnffntf8 ::1 2018-06-19T14:13:34+02:00 Connexion échoué. 
Nickname : root Password : Fnffntf8 ::1 2018-06-19T14:14:06+02:00 Connexion échoué. 
Nickname : root Password : Fnffntf8 ::1 2018-06-19T14:14:09+02:00 Connexion échoué. 
Nickname : root Password : Fnffntf8 ::1 2018-06-19T14:14:23+02:00 Connexion échoué. 
Nickname : root Password : Fnffntf8 ::1 2018-06-19T14:14:30+02:00 Connexion échoué. 
Nickname : root Password : Fnffntf8 ::1 2018-06-19T14:14:42+02:00 Connexion échoué. 
Nickname : root Password : Fnffntf8 ::1 2018-06-19T14:14:55+02:00 Connexion échoué. 
Nickname : root Password : Fnffntf8 ::1 2018-06-19T14:15:05+02:00 Connexion échoué. 
Nickname : root Password : Fnffntf8 ::1 2018-06-19T14:15:29+02:00 Connexion échoué. 
Nickname : root Password : Fnffntf8 ::1 2018-06-19T14:16:26+02:00 Connexion échoué. 
Nickname : root Password : Fnffntf8 ::1 2018-06-19T14:17:39+02:00 Connexion échoué. 
Nickname : root Password : Fnffntf8 ::1 2018-06-19T14:17:49+02:00 Connexion échoué. 
Nickname : root Password : Fnffntf8 ::1 2018-06-19T14:18:38+02:00 Connexion échoué. 
Nickname : root'(yhg Password : Fnffntf8 ::1 2018-06-19T14:20:32+02:00 Connexion échoué. 
Nickname : rogf Password : Fnffntf8 ::1 2018-06-19T14:20:36+02:00 Connexion échoué. 
Nickname : rdscfk,;lozd Password : d,kpldmx, ::1 2018-06-19T14:23:46+02:00 Connexion échoué. 
Nickname : Asphyx Password : HelloWorls ::1 2018-06-19T14:24:00+02:00 Connexion échoué. 
Nickname : Asphyx Password : helooWorld ::1 2018-06-19T14:24:21+02:00 Connexion échoué. 
Nickname : Asphyx Password : HelloWorld ::1 2018-06-19T14:24:51+02:00 Connexion réussi. 
Nickname : Asphyx Password : helooWorld ::1 2018-06-19T14:25:09+02:00 Connexion échoué. 
Nickname : Asphyx Password : helooWorld ::1 2018-06-19T14:25:25+02:00 Connexion échoué. 
Nickname : Asphyx Password : helooWorld ::1 2018-06-19T14:25:28+02:00 Connexion échoué. 
Nickname : Asphyx Password : helooWorld ::1 2018-06-19T14:25:30+02:00 Connexion échoué. 
Nickname : Asphyx Password : helooWorld ::1 2018-06-19T14:25:50+02:00 Connexion échoué. 
Nickname : Asphyx Password : helooWorld ::1 2018-06-19T14:26:01+02:00 Connexion échoué. 
Nickname : Asphyx Password : helooWorld ::1 2018-06-19T14:26:04+02:00 Connexion échoué. 
Nickname : Asphyx Password : helooWorld ::1 2018-06-19T14:27:50+02:00 Connexion échoué. 
Nickname : Asphyx Password : helooWorld ::1 2018-06-19T14:27:51+02:00 Connexion échoué. 
Nickname : Asphyx Password : helooWorld ::1 2018-06-19T14:27:52+02:00 Connexion échoué. 
Nickname : Asphyx Password : helooWorld ::1 2018-06-19T14:27:54+02:00 Connexion échoué. 
Nickname : Asphyx Password : helooWorld ::1 2018-06-19T14:28:17+02:00 Connexion échoué. 
Nickname : root Password : Fnffntf8 ::1 2018-06-19T14:28:28+02:00 Connexion échoué. 
Nickname : root Password : Fnffntf8 ::1 2018-06-19T14:28:29+02:00 Connexion échoué. 
Nickname : root Password : Fnffntf8 ::1 2018-06-19T14:29:15+02:00 Connexion échoué. 
Nickname : root Password : Fnffntf8 ::1 2018-06-19T14:30:14+02:00 Connexion échoué. 
Nickname : root Password : Fnffntf8 ::1 2018-06-19T14:31:08+02:00 Connexion échoué. 
Nickname : root Password : Fnffntf8 ::1 2018-06-19T14:31:28+02:00 Connexion échoué. 
Nickname : root Password : Fnffntf8 ::1 2018-06-19T14:31:40+02:00 Connexion échoué. 
Nickname : root Password : Fnffntf8 ::1 2018-06-19T14:31:49+02:00 Connexion échoué. 
Nickname : rootdkzaopdkza&quot;opdkopzak,dfozas,joies,iolfj,skoiqfcjùopizesqk,fdopùkj,fcaznsqjmcfnzeisqcfpinsqjidfnujizqsncnazqsinfbcuqaznbufdhù Password : Fnffntf8 ::1 2018-06-19T14:32:17+02:00 Connexion échoué. 
Nickname : root Password : Fnffntf8 ::1 2018-06-19T14:32:18+02:00 Connexion échoué. 
Nickname : root Password : Fnffntf8 ::1 2018-06-19T14:32:18+02:00 Connexion échoué. 
Nickname : root Password : Fnffntf8 ::1 2018-06-19T14:32:18+02:00 Connexion échoué. 
Nickname : root Password : Fnffntf8 ::1 2018-06-19T14:32:19+02:00 Connexion échoué. 
Nickname : root Password : Fnffntf8 ::1 2018-06-19T14:32:19+02:00 Connexion échoué. 
Nickname : root Password : Fnffntf8 ::1 2018-06-19T14:32:19+02:00 Connexion échoué. 
Nickname : root Password : Fnffntf8 ::1 2018-06-19T14:32:19+02:00 Connexion échoué. 
Nickname : root Password : Fnffntf8 ::1 2018-06-19T14:32:34+02:00 Connexion échoué. 
Nickname : root Password : Fnffntf8 ::1 2018-06-19T14:33:16+02:00 Connexion échoué. 
Nickname : root Password : Fnffntf8 ::1 2018-06-19T14:33:35+02:00 Connexion échoué. 
Nickname : root Password : Fnffntf8 ::1 2018-06-19T14:34:01+02:00 Connexion échoué. 
Nickname : root Password : Fnffntf8 ::1 2018-06-19T14:34:11+02:00 Connexion échoué. 
Nickname : root Password : Fnffntf8 ::1 2018-06-19T14:34:15+02:00 Connexion échoué. 
Nickname : root Password : Fnffntf8 ::1 2018-06-19T14:35:25+02:00 Connexion échoué. 
Nickname : root Password : Fnffntf8 ::1 2018-06-19T14:35:46+02:00 Connexion échoué. 
Nickname : root Password : Fnffntf8 ::1 2018-06-19T14:35:48+02:00 Connexion échoué. 
Nickname : root Password : Fnffntf8 ::1 2018-06-19T14:35:49+02:00 Connexion échoué. 
Nickname : root Password : Fnffntf8 ::1 2018-06-19T14:36:08+02:00 Connexion échoué. 
Nickname : root Password : Fnffntf8 ::1 2018-06-19T14:36:33+02:00 Connexion échoué. 
Nickname : root Password : Fnffntf8 ::1 2018-06-19T14:36:40+02:00 Connexion échoué. 
Nickname : root Password : Fnffntf8 ::1 2018-06-19T14:36:41+02:00 Connexion échoué. 
Nickname : root Password : Fnffntf8 ::1 2018-06-19T14:36:41+02:00 Connexion échoué. 
Nickname : root Password : Fnffntf8 ::1 2018-06-19T14:36:41+02:00 Connexion échoué. 
Nickname : root Password : Fnffntf8 ::1 2018-06-19T14:37:02+02:00 Connexion échoué. 
Nickname : root Password : Fnffntf8 ::1 2018-06-19T14:37:54+02:00 Connexion échoué. 
Nickname : root Password : Fnffntf8 ::1 2018-06-19T14:38:41+02:00 Connexion échoué. 
Nickname : root Password : Fnffntf8 ::1 2018-06-19T14:38:44+02:00 Connexion échoué. 
Nickname : root Password : Fnffntf8 ::1 2018-06-19T14:38:50+02:00 Connexion échoué. 
Nickname : root Password : Fnffntf8 ::1 2018-06-19T14:40:11+02:00 Connexion échoué. 
Nickname : root Password : Fnffntf8 ::1 2018-06-19T14:40:26+02:00 Connexion échoué. 
Nickname : root Password : Fnffntf8 ::1 2018-06-19T14:40:30+02:00 Connexion échoué. 
Nickname : root Password : Fnffntf8 ::1 2018-06-19T14:40:31+02:00 Connexion échoué. 
Nickname : root Password : Fnffntf8 ::1 2018-06-19T14:40:31+02:00 Connexion échoué. 
Nickname : root Password : Fnffntf8 ::1 2018-06-19T14:40:32+02:00 Connexion échoué. 
Nickname : root Password : Fnffntf8 ::1 2018-06-19T14:40:32+02:00 Connexion échoué. 
Nickname : root Password : Fnffntf8 ::1 2018-06-19T14:40:32+02:00 Connexion échoué. 
Nickname : root Password : Fnffntf8 ::1 2018-06-19T14:40:32+02:00 Connexion échoué. 
Nickname : root Password : Fnffntf8 ::1 2018-06-19T14:40:32+02:00 Connexion échoué. 
Nickname : root Password : Fnffntf8 ::1 2018-06-19T14:40:32+02:00 Connexion échoué. 
Nickname : root Password : Fnffntf8 ::1 2018-06-19T14:40:33+02:00 Connexion échoué. 
Nickname : root Password : Fnffntf8 ::1 2018-06-19T14:41:28+02:00 Connexion échoué. 
Nickname : root Password : Fnffntf8 ::1 2018-06-19T14:42:00+02:00 Connexion échoué. 
Nickname : root Password : Fnffntf8 ::1 2018-06-19T14:42:13+02:00 Connexion échoué. 
Nickname : root Password : Fnffntf8 ::1 2018-06-19T14:42:15+02:00 Connexion échoué. 
Nickname : ddddd Password : Fnffntf8 ::1 2018-06-19T14:42:18+02:00 Connexion échoué. 
Nickname : ddddd Password : Fnffntf8 ::1 2018-06-19T14:42:35+02:00 Connexion échoué. 
Nickname : ddddd Password : Fnffntf8 ::1 2018-06-19T14:42:51+02:00 Connexion échoué. 
Nickname : ddddd Password : Fnffntf8 ::1 2018-06-19T14:45:33+02:00 Connexion échoué. 
Nickname : ddddd Password : Fnffntf8 ::1 2018-06-19T14:46:08+02:00 Connexion échoué. 
Nickname : RED Password : Fnffntf8 ::1 2018-06-19T14:47:52+02:00 Connexion échoué. 
Nickname : refg Password : Fnffntf8 ::1 2018-06-19T14:48:00+02:00 Connexion échoué. 
Nickname : refg Password : Fnffntf8 ::1 2018-06-19T14:48:37+02:00 Connexion échoué. 
Nickname : refg Password : Fnffntf8 ::1 2018-06-19T14:52:33+02:00 Connexion échoué. 
Nickname : refg Password : Fnffntf8 ::1 2018-06-19T14:54:08+02:00 Connexion échoué. 
Nickname : refg Password : Fnffntf8 ::1 2018-06-19T15:56:14+02:00 Connexion échoué. 
Nickname : refg Password : Fnffntf8 ::1 2018-06-19T15:56:41+02:00 Connexion échoué. 
Nickname : refg Password : Fnffntf8 ::1 2018-06-19T15:57:45+02:00 Connexion échoué. 
Nickname : ttttttv Password : ttt ::1 2018-06-19T15:57:55+02:00 Connexion échoué. 
Nickname : Asphyx Password : HelloWorld ::1 2018-06-19T15:58:16+02:00 Connexion réussi. 
Nickname : ttttttv Password : ttt ::1 2018-06-19T15:58:52+02:00 Connexion échoué. 
Nickname : frfff Password : d,klf ::1 2018-06-19T15:59:25+02:00 Connexion échoué. 
Nickname : frfff Password : d,klf ::1 2018-06-19T16:00:24+02:00 Connexion échoué. 
Nickname : frfff Password : d,klf ::1 2018-06-19T16:00:54+02:00 Connexion échoué. 
Nickname : frfff Password : d,klf ::1 2018-06-19T16:01:13+02:00 Connexion échoué. 
Nickname : frfff Password : d,klf ::1 2018-06-19T16:01:30+02:00 Connexion échoué. 
Nickname : frfff Password : d,klf ::1 2018-06-19T16:01:47+02:00 Connexion échoué. 
Nickname : dsasz Password : dsdeza ::1 2018-06-19T16:02:11+02:00 Connexion échoué. 
Nickname : dazdza Password : dtgrz ::1 2018-06-19T16:10:15+02:00 Connexion échoué. 
Nickname : dazdza Password : dtgrz ::1 2018-06-19T16:10:36+02:00 Connexion échoué. 
Nickname : dazdza Password : dtgrz ::1 2018-06-19T16:11:33+02:00 Connexion échoué. 
Nickname : Asphyx Password : HelloWorld ::1 2018-06-19T16:22:17+02:00 Connexion réussi. 
Nickname : Asphyx Password : HelloWorld ::1 2018-06-19T16:23:15+02:00 Connexion réussi. 
Nickname : Asphyx Password : HelloWorld ::1 2018-06-19T16:41:23+02:00 Connexion réussi. 
Nickname : Asphyx Password : HelloWorld ::1 2018-06-19T16:42:23+02:00 Connexion réussi. 
Nickname : Asphyx Password : Helloworld ::1 2018-06-19T16:46:15+02:00 Connexion échoué. 
Nickname : Asphyx Password : HelloWorld ::1 2018-06-19T16:46:29+02:00 Connexion réussi. 
Nickname : Asphyx Password : HelloWorld ::1 2018-06-20T09:45:27+02:00 Connexion réussi. 
Nickname : Asphyx Password : HelloWorld ::1 2018-06-21T11:53:32+02:00 Connexion réussi. 
Nickname : Asphyx Password : HelloWorld ::1 2018-06-21T12:07:59+02:00 Connexion réussi. 
Nickname : Asphyx Password : HelloWorld ::1 2018-06-21T12:10:29+02:00 Connexion réussi. 
Nickname : Asphyx Password : HelloWorld ::1 2018-06-22T19:48:07+02:00 Connexion réussi. 
Nickname : Asphyx Password : HelloWorld ::1 2018-06-27T12:51:11+02:00 Connexion réussi. 
Nickname : Asphyx Password : HelloWorld ::1 2018-06-27T12:53:29+02:00 Connexion réussi. 
Nickname : Asphyx Password : HelloWorld ::1 2018-06-27T16:04:29+02:00 Connexion réussi. 
Nickname : Asphyx Password : HelloWorld ::1 2018-06-28T09:58:45+02:00 Connexion réussi. 
Nickname : Asphyx Password : HelloWorld ::1 2018-06-28T14:23:59+02:00 Connexion réussi. 
Nickname : Asphyx Password : Fnffntf8 ::1 2018-06-28T14:24:43+02:00 Connexion échoué. 
Nickname : Asphyx Password : HelloWorld ::1 2018-06-28T14:24:56+02:00 Connexion réussi. 
Nickname : Asphyx Password : HelloWorld ::1 2018-07-09T15:14:33+02:00 Connexion réussi. 
Nickname : Asphyx Password : HelloWorld ::1 2018-07-10T22:20:05+02:00 Connexion réussi. 
Nickname : Asphyx Password : HelloWorld ::1 2018-07-12T09:55:33+02:00 Connexion réussi. 
Nickname : Asphyx Password : HelloWorld ::1 2018-07-12T10:03:41+02:00 Connexion réussi. 
Nickname : Asphyx Password : HelloWorld ::1 2018-07-12T10:05:49+02:00 Connexion réussi. 
Nickname : Asphyx Password : HelloWorld ::1 2018-07-12T10:07:03+02:00 Connexion réussi. 
